The Goal of this task is to see what .each, .each_slice, .select, .map, .inject can do for an array

373248
857375
79507
175616
704969
64000
27000
658503
474552
804357
64000
1728
300763
6859
389017
512000
195112
29791
531441
9261
2744
2744
2744
15625
778688
857375
438976
551368
658503
438976
551368
103823
17576
493039
110592
12167
729000
1331
8000
274625
389017
59319
250047
6859
300763
54872
1331
39304
19683
226981
72
95
43
56
89
40
30
87
78
93
40
12
67
19
73
80
58
31
81
21
14
14
14
25
92
95
76
82
87
76
82
47
26
79
48
23
90
11
20
65
73
39
63
19
67
38
11
34
27
61
=> [857375, 64000, 27000, 64000, 512000, 15625, 857375, 729000, 8000, 274625]